2

 640.0000000000  480.0000000000  529.9263916016    0.0000000000  332.5318298340    0.0000000000  529.3267822266  273.2457580566    0.0000000000    0.0000000000    1.0000000000    0.0028687527   -0.0078416327    0.0000042430   -0.0008763199   -0.9780555964   -0.0793426260   -0.1926446855    0.0155428378    0.8942837119   -0.4472304881    0.2077634484   -0.4404105246   -0.8734259605  265.1587829590   65.1022415161  873.7319335938 

 640.0000000000  480.0000000000  529.6288452148    0.0000000000  318.2290649414    0.0000000000  529.2712402344  234.6507720947    0.0000000000    0.0000000000    1.0000000000   -0.0097919181    0.0309856702    0.0001738126   -0.0013738216   -0.9737908244   -0.0579770580   -0.2199321240    0.0629876405    0.8604046702   -0.5057038069    0.2185498476   -0.5063027143   -0.8342022896  187.4441528320  126.3417968750  864.6770629883 

 -10.7747640610   -3.6565582752  664.1934814453    0.1417916715  636.6395263672  476.8237915039    7.2487139702  467.1797485352 
  -9.7678232193   20.9252910614  639.9975585938   -0.1153479815  650.1893310547  478.8861083984    0.1170752496  485.5023803711 
   1.0404031551    0.0386334210  -10.7747640610    0.0059318830    1.0508055600   -3.6565582752   -0.0000214316    0.0001496139    1.0000000000 
   0.9851451151    0.0205935385   -9.7678232193   -0.0328705711    0.9678689905   20.9252910614   -0.0000470522    0.0000000001    1.0000000000 
